0:0
663:2656
676:1143
781:942
783:2107
806:2105
823:2452
849:530
877:554
982:1812
1148:2087
1340:1515
1352:1269
1514:2029
1516:964
1652:2159
1707:881
2228:1562
2428:1249
3265:1941
3816:962
3899:247
4158:1507
4667:1742
5059:2405
7120:2463
7683:547
7824:1020
8080:549
8552:1743
8652:2092
10311:246
11224:1224
11530:30
11846:1979
11924:734
13347:2088
13547:1170
13808:837
14174:548
14193:2459
15975:948
18362:2557
18410:927
19384:1102
21970:2561
22206:753
23566:2467
27018:1510
27601:873
28653:1024
29148:1501
30416:1003
30982:1184
30994:1986
31218:1543
31791:2716
33517:2086
34371:360
34484:1898
35129:362
35698:1036
35963:2003
37442:2264
37701:900
37878:2456
38378:2142
39042:78
39637:551
41187:265
42454:1286
42988:2468
43392:557
43405:276
43632:2313
43719:338
45143:2180
46036:897
47107:2220
48176:1822
48279:550
48836:824
48925:1004
51777:2541
51962:509
52022:888
52736:855
53103:499
54329:1493
56606:1502
57044:2050
57081:2691
57279:1469
57484:2079
57846:2043
58103:2071
58103:2073
58691:2059
58782:1300
59162:2080
